ApplicationMgr    SUCCESS
====================================================================================================================================
====================================================================================================================================
ApplicationMgr       INFO Application Manager Configured successfully
StatusCodeSvc        INFO initialize
DetectorPersist...   INFO Added successfully Conversion service:XmlCnvSvc
DetectorDataSvc   SUCCESS Detector description database: git:/lhcb.xml
BooleSequencer       INFO Member list: ProcessPhase/Init, ProcessPhase/Digi, ProcessPhase/Link, ProcessPhase/Moni, ProcessPhase/Filter
RndmGenSvc.Engine    INFO Generator engine type:CLHEP::RanluxEngine
RndmGenSvc.Engine    INFO Current Seed:1234567 Luxury:3
RndmGenSvc           INFO Using Random engine:HepRndm::Engine<CLHEP::RanluxEngine>
Init                 INFO Member list: GaudiSequencer/InitBooleSeq, GaudiSequencer/InitDataSeq, GaudiSequencer/InitMuonSeq
InitBooleSeq         INFO Member list: BooleInit, GaudiSequencer/SpilloverHandler
BooleInit         SUCCESS ==================================================================
BooleInit         SUCCESS Requested to process 10 events
BooleInit         SUCCESS ==================================================================
RootHistSvc          INFO Writing ROOT histograms to: Boole-RC_PreserveSP-10ev-histos.root
HistogramPersis...   INFO Added successfully Conversion service:RootHistSvc
HistogramDataSvc     INFO Added stream file:PARAM/ParamFiles/vXrYpZ/data/muonlow-G4.root as LowEnergy
HistogramDataSvc     INFO Added stream file:PARAM/ParamFiles/vXrYpZ/data/muonflat-G4.root as MuonFlatSpillover
SpilloverHandler     INFO Member list: TESCheck/SpilloverLoader, EventNodeKiller/SpilloverKiller
InitDataSeq          INFO Member list:
InitMuonSeq          INFO Member list: MuonBackground/MuonLowEnergy, MuonBackground/MuonFlatSpillover
EventClockSvc.F...   INFO Event times generated from 0 with steps of 0
RFileCnv             INFO opening Root file "PARAM/ParamFiles/vXrYpZ/data/muonlow-G4.root" for reading
MuonLowEnergy        INFO The low energy background is run by default for main events plus (if any) spillover events (max 4)
RFileCnv             INFO opening Root file "PARAM/ParamFiles/vXrYpZ/data/muonflat-G4.root" for reading
Digi                 INFO Member list: GaudiSequencer/DigiVPSeq
DigiVPSeq            INFO Member list: VPEnsureBanks, VPDepositCreator, VPDigitCreator, VPSuperPixelBankEncoder, VPRetinaClusterCreator, RawEventSimpleCombiner
Link                 INFO Member list: GaudiSequencer/LinkVPSeq
LinkVPSeq            INFO Member list: VPDigitLinker
Moni                 INFO Member list: GaudiSequencer/MoniVPSeq
MoniVPSeq            INFO Member list:
Filter               INFO OR Member list:
PrepareDIGI          INFO Member list: PackMCVertex, PackMCParticle
FileRecordPersi...   INFO Added successfully Conversion service:FileRecordCnvSvc
FSROutputStream...   INFO Data source: FileRecordDataSvc output: DATAFILE='PFN:Boole-RC_PreserveSP-10ev.digi' SVC='FileRecordCnvSvc' OPT='REC'
EventPersistenc...   INFO Added successfully Conversion service:RootCnvSvc
DigiWriter           INFO Data source: EventDataSvc output: DATAFILE='PFN:Boole-RC_PreserveSP-10ev.digi' SVC='RootCnvSvc' OPT='REC'
EventPersistenc...   INFO Added successfully Conversion service:LHCb::RawDataCnvSvc
RawWriter            INFO Data source: EventDataSvc output: DATAFILE='PFN:Boole-RC_PreserveSP-10ev.mdf' SVC='LHCb::RawDataCnvSvc' OPT='REC'
ApplicationMgr       INFO Application Manager Initialized successfully
ApplicationMgr       INFO Application Manager Started successfully
VPDepositCreator  WARNING VPDepositCreator:: VP deadtime parameters not in conditions DB
BooleInit            INFO Evt 1,  Run 1,  Nr. in job = 1
MuonFlatSpillover    INFO  luminosity factor 5.40302 compared to default 2*10^32 cm-2 s-1
LHCb::RawDataCn...   INFO Opened(NEW)  MDF stream:PFN:Boole-RC_PreserveSP-10ev.mdf ID:0x########
BooleInit            INFO Evt 2,  Run 1,  Nr. in job = 2
BooleInit            INFO Evt 3,  Run 1,  Nr. in job = 3
BooleInit            INFO Evt 4,  Run 1,  Nr. in job = 4
BooleInit            INFO Evt 5,  Run 1,  Nr. in job = 5
BooleInit            INFO Evt 6,  Run 1,  Nr. in job = 6
BooleInit            INFO Evt 7,  Run 1,  Nr. in job = 7
BooleInit            INFO Evt 8,  Run 1,  Nr. in job = 8
BooleInit            INFO Evt 9,  Run 1,  Nr. in job = 9
BooleInit            INFO Evt 10,  Run 1,  Nr. in job = 10
ApplicationMgr       INFO Application Manager Stopped successfully
BooleInit         SUCCESS ==================================================================
BooleInit         SUCCESS 10 events processed
BooleInit         SUCCESS ==================================================================
VPDepositCreator  SUCCESS  #WARNINGS   = 1        Message = 'VP deadtime parameters not in conditions DB'
VPDepositCreator  SUCCESS Exceptions/Errors/Warnings/Infos Statistics : 0/0/1/0
FSROutputStream...   INFO Set up File Summary Record
FSROutputStream...   INFO Events output: 1
DigiWriter           INFO Events output: 10
RawWriter            INFO Events output: 10
EventLoopMgr         INFO Histograms converted successfully according to request.
LHCb::RawDataCn...   INFO Closed connected MDF stream:PFN:Boole-RC_PreserveSP-10ev.mdf ID:0x########
ToolSvc              INFO Removing all tools created by ToolSvc
ApplicationMgr       INFO Application Manager Finalized successfully
ApplicationMgr       INFO Application Manager Terminated successfully
UnpackMCVPHits    SUCCESS Number of counters : 1
 |    Counter                                      |     #     |    sum     | mean/eff^* | rms/err^*  |     min     |     max     |
 | "# UnPackedData"                                |        10 |      34977 |     3497.7 |     722.72 |      2414.0 |      4595.0 |
VPDepositCreator  SUCCESS Number of counters : 5
 |    Counter                                      |     #     |    sum     | mean/eff^* | rms/err^*  |     min     |     max     |
 | "1 VPDeposits from Prev/Prev"                   |        10 |          0 |     0.0000 |     0.0000 |      0.0000 |      0.0000 |
 | "2 VPDeposits from Prev"                        |        10 |          0 |     0.0000 |     0.0000 |      0.0000 |      0.0000 |
 | "3 VPDeposits from Main"                        |        10 |      76551 |     7655.1 |     1540.0 |      5444.0 |      9805.0 |
 | "4 VPDeposits from Next"                        |        10 |          0 |     0.0000 |     0.0000 |      0.0000 |      0.0000 |
 | "5 Deadtime removed VPDeposits"                 |        10 |        316 |     31.600 |     10.317 |      17.000 |      57.000 |
VPDigitCreator    SUCCESS Number of counters : 5
 |    Counter                                      |     #     |    sum     | mean/eff^* | rms/err^*  |     min     |     max     |
 | "1 Signal VPDigits"                             |        10 |      52791 |     5279.1 |     1071.5 |      3760.0 |      6797.0 |
 | "2 Noise VPDigits"                              |        10 |          0 |     0.0000 |     0.0000 |      0.0000 |      0.0000 |
 | "3 Lost Random bad pixels"                      |        10 |          0 |     0.0000 |     0.0000 |      0.0000 |      0.0000 |
 | "4 Spillover VPDigits"                          |        10 |          0 |     0.0000 |     0.0000 |      0.0000 |      0.0000 |
 | "5 Out of time VPDigits"                        |        10 |      24236 |     2423.6 |     482.55 |      1718.0 |      3117.0 |
BooleInit.Boole...SUCCESS Number of counters : 2
 |    Counter                                      |     #     |    sum     | mean/eff^* | rms/err^*  |     min     |     max     |
VPDepositCreator  SUCCESS Booked 6 Histogram(s) : 1D=3 2D=3
BooleInit.Boole...SUCCESS Booked 4 Histogram(s) : 1D=4
